%YAML 1.1
%TAG !u! tag:unity3d.com,2011:
--- !u!1001 &2370059555334842205
PrefabInstance:
  m_ObjectHideFlags: 0
  serializedVersion: 2
  m_Modification:
    m_TransformParent: {fileID: 0}
    m_Modifications:
    - target: {fileID: 100000, guid: ad7c557fff885f54c8dbd145b45f29fb, type: 3}
      propertyPath: m_Name
      value: carnations (1)
      objectReference: {fileID: 0}
    - target: {fileID: 400000, guid: ad7c557fff885f54c8dbd145b45f29fb, type: 3}
      propertyPath: m_LocalPosition.x
      value: -10.832
      objectReference: {fileID: 0}
    - target: {fileID: 400000, guid: ad7c557fff885f54c8dbd145b45f29fb, type: 3}
      propertyPath: m_LocalPosition.y
      value: 1.5251783
      objectReference: {fileID: 0}
    - target: {fileID: 400000, guid: ad7c557fff885f54c8dbd145b45f29fb, type: 3}
      propertyPath: m_LocalPosition.z
      value: -0.851
      objectReference: {fileID: 0}
    - target: {fileID: 400000, guid: ad7c557fff885f54c8dbd145b45f29fb, type: 3}
      propertyPath: m_LocalRotation.x
      value: 0
      objectReference: {fileID: 0}
    - target: {fileID: 400000, guid: ad7c557fff885f54c8dbd145b45f29fb, type: 3}
      propertyPath: m_LocalRotation.y
      value: -0.30070576
      objectReference: {fileID: 0}
    - target: {fileID: 400000, guid: ad7c557fff885f54c8dbd145b45f29fb, type: 3}
      propertyPath: m_LocalRotation.z
      value: 0
      objectReference: {fileID: 0}
    - target: {fileID: 400000, guid: ad7c557fff885f54c8dbd145b45f29fb, type: 3}
      propertyPath: m_LocalRotation.w
      value: 0.953717
      objectReference: {fileID: 0}
    - target: {fileID: 400000, guid: ad7c557fff885f54c8dbd145b45f29fb, type: 3}
      propertyPath: m_RootOrder
      value: 0
      objectReference: {fileID: 0}
    - target: {fileID: 400000, guid: ad7c557fff885f54c8dbd145b45f29fb, type: 3}
      propertyPath: m_LocalEulerAnglesHint.x
      value: 0
      objectReference: {fileID: 0}
    - target: {fileID: 400000, guid: ad7c557fff885f54c8dbd145b45f29fb, type: 3}
      propertyPath: m_LocalEulerAnglesHint.y
      value: -35
      objectReference: {fileID: 0}
    - target: {fileID: 400000, guid: ad7c557fff885f54c8dbd145b45f29fb, type: 3}
      propertyPath: m_LocalEulerAnglesHint.z
      value: 0
      objectReference: {fileID: 0}
    - target: {fileID: 2300000, guid: ad7c557fff885f54c8dbd145b45f29fb, type: 3}
      propertyPath: m_Materials.Array.data[2]
      value: 
      objectReference: {fileID: 2100000, guid: 48b31daa83ddb854fadd9402702394e4, type: 2}
    - target: {fileID: 2300000, guid: ad7c557fff885f54c8dbd145b45f29fb, type: 3}
      propertyPath: m_Materials.Array.data[1]
      value: 
      objectReference: {fileID: 2100000, guid: 579080bda9f89ee42a5447d6d997e266, type: 2}
    - target: {fileID: 2300000, guid: ad7c557fff885f54c8dbd145b45f29fb, type: 3}
      propertyPath: m_Materials.Array.data[0]
      value: 
      objectReference: {fileID: 2100000, guid: 4b6c16c8bf29c9e40bc66796d0674b6e, type: 2}
    m_RemovedComponents: []
  m_SourcePrefab: {fileID: 100100000, guid: ad7c557fff885f54c8dbd145b45f29fb, type: 3}
