%YAML 1.1
%TAG !u! tag:unity3d.com,2011:
--- !u!1001 &1864195816799920477
PrefabInstance:
  m_ObjectHideFlags: 0
  serializedVersion: 2
  m_Modification:
    m_TransformParent: {fileID: 0}
    m_Modifications:
    - target: {fileID: 100000, guid: 87f810e41bb18a14cafe083974b3e71a, type: 3}
      propertyPath: m_Name
      value: grass-clumb
      objectReference: {fileID: 0}
    - target: {fileID: 400000, guid: 87f810e41bb18a14cafe083974b3e71a, type: 3}
      propertyPath: m_LocalPosition.x
      value: -9.843925
      objectReference: {fileID: 0}
    - target: {fileID: 400000, guid: 87f810e41bb18a14cafe083974b3e71a, type: 3}
      propertyPath: m_LocalPosition.y
      value: 1.2595018
      objectReference: {fileID: 0}
    - target: {fileID: 400000, guid: 87f810e41bb18a14cafe083974b3e71a, type: 3}
      propertyPath: m_LocalPosition.z
      value: 2.787
      objectReference: {fileID: 0}
    - target: {fileID: 400000, guid: 87f810e41bb18a14cafe083974b3e71a, type: 3}
      propertyPath: m_LocalRotation.x
      value: 0
      objectReference: {fileID: 0}
    - target: {fileID: 400000, guid: 87f810e41bb18a14cafe083974b3e71a, type: 3}
      propertyPath: m_LocalRotation.y
      value: -0
      objectReference: {fileID: 0}
    - target: {fileID: 400000, guid: 87f810e41bb18a14cafe083974b3e71a, type: 3}
      propertyPath: m_LocalRotation.z
      value: -0
      objectReference: {fileID: 0}
    - target: {fileID: 400000, guid: 87f810e41bb18a14cafe083974b3e71a, type: 3}
      propertyPath: m_LocalRotation.w
      value: 1
      objectReference: {fileID: 0}
    - target: {fileID: 400000, guid: 87f810e41bb18a14cafe083974b3e71a, type: 3}
      propertyPath: m_RootOrder
      value: 0
      objectReference: {fileID: 0}
    - target: {fileID: 400000, guid: 87f810e41bb18a14cafe083974b3e71a, type: 3}
      propertyPath: m_LocalEulerAnglesHint.x
      value: 0
      objectReference: {fileID: 0}
    - target: {fileID: 400000, guid: 87f810e41bb18a14cafe083974b3e71a, type: 3}
      propertyPath: m_LocalEulerAnglesHint.y
      value: 0
      objectReference: {fileID: 0}
    - target: {fileID: 400000, guid: 87f810e41bb18a14cafe083974b3e71a, type: 3}
      propertyPath: m_LocalEulerAnglesHint.z
      value: 0
      objectReference: {fileID: 0}
    - target: {fileID: 2300000, guid: 87f810e41bb18a14cafe083974b3e71a, type: 3}
      propertyPath: m_Materials.Array.data[0]
      value: 
      objectReference: {fileID: 2100000, guid: 1d41f8c57e738e44f9f12fc053be388c, type: 2}
    m_RemovedComponents: []
  m_SourcePrefab: {fileID: 100100000, guid: 87f810e41bb18a14cafe083974b3e71a, type: 3}
