%YAML 1.1
%TAG !u! tag:unity3d.com,2011:
--- !u!136 &3223651716046159064
CapsuleCollider:
  m_ObjectHideFlags: 0
  m_CorrespondingSourceObject: {fileID: 0}
  m_PrefabInstance: {fileID: 0}
  m_PrefabAsset: {fileID: 0}
  m_GameObject: {fileID: 1250131179720956263}
  m_Material: {fileID: 0}
  m_IsTrigger: 0
  m_Enabled: 1
  m_Radius: 0.20831823
  m_Height: 3
  m_Direction: 1
  m_Center: {x: 0.0071644783, y: 3, z: 1.1721399}
--- !u!136 &7669062535542441632
CapsuleCollider:
  m_ObjectHideFlags: 0
  m_CorrespondingSourceObject: {fileID: 0}
  m_PrefabInstance: {fileID: 0}
  m_PrefabAsset: {fileID: 0}
  m_GameObject: {fileID: 1250131179720956263}
  m_Material: {fileID: 0}
  m_IsTrigger: 0
  m_Enabled: 1
  m_Radius: 0.44318295
  m_Height: 2.0699763
  m_Direction: 1
  m_Center: {x: -0.047492027, y: 0.51598716, z: 0.53774774}
--- !u!1001 &1250131179721056199
PrefabInstance:
  m_ObjectHideFlags: 0
  serializedVersion: 2
  m_Modification:
    m_TransformParent: {fileID: 0}
    m_Modifications:
    - target: {fileID: 100000, guid: 833fd7b70318e5c44b77a74441cf0091, type: 3}
      propertyPath: m_Name
      value: palm-angle Variant
      objectReference: {fileID: 0}
    - target: {fileID: 400000, guid: 833fd7b70318e5c44b77a74441cf0091, type: 3}
      propertyPath: m_LocalPosition.x
      value: 10.035851
      objectReference: {fileID: 0}
    - target: {fileID: 400000, guid: 833fd7b70318e5c44b77a74441cf0091, type: 3}
      propertyPath: m_LocalPosition.y
      value: -0.39
      objectReference: {fileID: 0}
    - target: {fileID: 400000, guid: 833fd7b70318e5c44b77a74441cf0091, type: 3}
      propertyPath: m_LocalPosition.z
      value: 5.511899
      objectReference: {fileID: 0}
    - target: {fileID: 400000, guid: 833fd7b70318e5c44b77a74441cf0091, type: 3}
      propertyPath: m_LocalRotation.x
      value: -0
      objectReference: {fileID: 0}
    - target: {fileID: 400000, guid: 833fd7b70318e5c44b77a74441cf0091, type: 3}
      propertyPath: m_LocalRotation.y
      value: -0
      objectReference: {fileID: 0}
    - target: {fileID: 400000, guid: 833fd7b70318e5c44b77a74441cf0091, type: 3}
      propertyPath: m_LocalRotation.z
      value: -0
      objectReference: {fileID: 0}
    - target: {fileID: 400000, guid: 833fd7b70318e5c44b77a74441cf0091, type: 3}
      propertyPath: m_LocalRotation.w
      value: 1
      objectReference: {fileID: 0}
    - target: {fileID: 400000, guid: 833fd7b70318e5c44b77a74441cf0091, type: 3}
      propertyPath: m_RootOrder
      value: 0
      objectReference: {fileID: 0}
    - target: {fileID: 400000, guid: 833fd7b70318e5c44b77a74441cf0091, type: 3}
      propertyPath: m_LocalEulerAnglesHint.x
      value: 0
      objectReference: {fileID: 0}
    - target: {fileID: 400000, guid: 833fd7b70318e5c44b77a74441cf0091, type: 3}
      propertyPath: m_LocalEulerAnglesHint.y
      value: 0
      objectReference: {fileID: 0}
    - target: {fileID: 400000, guid: 833fd7b70318e5c44b77a74441cf0091, type: 3}
      propertyPath: m_LocalEulerAnglesHint.z
      value: 0
      objectReference: {fileID: 0}
    - target: {fileID: 2300000, guid: 833fd7b70318e5c44b77a74441cf0091, type: 3}
      propertyPath: m_Materials.Array.data[0]
      value: 
      objectReference: {fileID: 2100000, guid: 4b6c16c8bf29c9e40bc66796d0674b6e, type: 2}
    - target: {fileID: 2300000, guid: 833fd7b70318e5c44b77a74441cf0091, type: 3}
      propertyPath: m_Materials.Array.data[1]
      value: 
      objectReference: {fileID: 2100000, guid: a7862d5615928c34e868320de65c2777, type: 2}
    m_RemovedComponents: []
  m_SourcePrefab: {fileID: 100100000, guid: 833fd7b70318e5c44b77a74441cf0091, type: 3}
--- !u!1 &1250131179720956263 stripped
GameObject:
  m_CorrespondingSourceObject: {fileID: 100000, guid: 833fd7b70318e5c44b77a74441cf0091, type: 3}
  m_PrefabInstance: {fileID: 1250131179721056199}
  m_PrefabAsset: {fileID: 0}
