%YAML 1.1
%TAG !u! tag:unity3d.com,2011:
--- !u!136 &4854165870414824426
CapsuleCollider:
  m_ObjectHideFlags: 0
  m_CorrespondingSourceObject: {fileID: 0}
  m_PrefabInstance: {fileID: 0}
  m_PrefabAsset: {fileID: 0}
  m_GameObject: {fileID: 2776777845380612380}
  m_Material: {fileID: 0}
  m_IsTrigger: 0
  m_Enabled: 1
  m_Radius: 0.5
  m_Height: 6.779405
  m_Direction: 1
  m_Center: {x: -0.08878207, y: 3.2090175, z: -0.3897106}
--- !u!1001 &2776777845380712444
PrefabInstance:
  m_ObjectHideFlags: 0
  serializedVersion: 2
  m_Modification:
    m_TransformParent: {fileID: 0}
    m_Modifications:
    - target: {fileID: 100064, guid: f2c1660a8f0c001408f4c42888103ece, type: 3}
      propertyPath: m_Name
      value: palm-big Variant
      objectReference: {fileID: 0}
    - target: {fileID: 400064, guid: f2c1660a8f0c001408f4c42888103ece, type: 3}
      propertyPath: m_LocalPosition.x
      value: 9.31585
      objectReference: {fileID: 0}
    - target: {fileID: 400064, guid: f2c1660a8f0c001408f4c42888103ece, type: 3}
      propertyPath: m_LocalPosition.y
      value: 0.049999952
      objectReference: {fileID: 0}
    - target: {fileID: 400064, guid: f2c1660a8f0c001408f4c42888103ece, type: 3}
      propertyPath: m_LocalPosition.z
      value: 2.4678254
      objectReference: {fileID: 0}
    - target: {fileID: 400064, guid: f2c1660a8f0c001408f4c42888103ece, type: 3}
      propertyPath: m_LocalRotation.x
      value: -0
      objectReference: {fileID: 0}
    - target: {fileID: 400064, guid: f2c1660a8f0c001408f4c42888103ece, type: 3}
      propertyPath: m_LocalRotation.y
      value: -0
      objectReference: {fileID: 0}
    - target: {fileID: 400064, guid: f2c1660a8f0c001408f4c42888103ece, type: 3}
      propertyPath: m_LocalRotation.z
      value: -0
      objectReference: {fileID: 0}
    - target: {fileID: 400064, guid: f2c1660a8f0c001408f4c42888103ece, type: 3}
      propertyPath: m_LocalRotation.w
      value: 1
      objectReference: {fileID: 0}
    - target: {fileID: 400064, guid: f2c1660a8f0c001408f4c42888103ece, type: 3}
      propertyPath: m_RootOrder
      value: 0
      objectReference: {fileID: 0}
    - target: {fileID: 400064, guid: f2c1660a8f0c001408f4c42888103ece, type: 3}
      propertyPath: m_LocalEulerAnglesHint.x
      value: 0
      objectReference: {fileID: 0}
    - target: {fileID: 400064, guid: f2c1660a8f0c001408f4c42888103ece, type: 3}
      propertyPath: m_LocalEulerAnglesHint.y
      value: 0
      objectReference: {fileID: 0}
    - target: {fileID: 400064, guid: f2c1660a8f0c001408f4c42888103ece, type: 3}
      propertyPath: m_LocalEulerAnglesHint.z
      value: 0
      objectReference: {fileID: 0}
    - target: {fileID: 2300066, guid: f2c1660a8f0c001408f4c42888103ece, type: 3}
      propertyPath: m_Materials.Array.data[0]
      value: 
      objectReference: {fileID: 2100000, guid: a7862d5615928c34e868320de65c2777, type: 2}
    - target: {fileID: 2300066, guid: f2c1660a8f0c001408f4c42888103ece, type: 3}
      propertyPath: m_Materials.Array.data[1]
      value: 
      objectReference: {fileID: 2100000, guid: 4b6c16c8bf29c9e40bc66796d0674b6e, type: 2}
    m_RemovedComponents: []
  m_SourcePrefab: {fileID: 100100000, guid: f2c1660a8f0c001408f4c42888103ece, type: 3}
--- !u!1 &2776777845380612380 stripped
GameObject:
  m_CorrespondingSourceObject: {fileID: 100064, guid: f2c1660a8f0c001408f4c42888103ece, type: 3}
  m_PrefabInstance: {fileID: 2776777845380712444}
  m_PrefabAsset: {fileID: 0}
